{
  "project_info": {
    "project_number": "1000350204494",
    "firebase_url": "https://cluj-events-93a5a.firebaseio.com",
    "project_id": "cluj-events-93a5a",
    "storage_bucket": "cluj-events-93a5a.appspot.com"
  },
  "client": [
    {
      "client_info": {
        "mobilesdk_app_id": "1:1000350204494:android:3340c3b79130c03c",
        "android_client_info": {
          "package_name": "com.example.asus.cluj_events"
        }
      },
      "oauth_client": [
        {
          "client_id": "1000350204494-23uhj1muacjvevlav4fcfo1saqmhq41u.apps.googleusercontent.com",
          "client_type": 3
        }
      ],
      "api_key": [
        {
          "current_key": "AIzaSyAZ1J-8CYHdJa5XudET-J01ilOnRlwZJpk"
        }
      ],
      "services": {
        "analytics_service": {
          "status": 1
        },
        "appinvite_service": {
          "status": 1,
          "other_platform_oauth_client": []
        },
        "ads_service": {
          "status": 2
        }
      }
    }
  ],
  "configuration_version": "1"
}